// Jest Snapshot v1, https://goo.gl/fbAQLP

exports[`Comment snapshot 1`] = `
<div>
  <li
    class="commentBody"
    role="comment-body"
  >
    <p>
      Jake
      <span>
        less than a minute ago
      </span>
    </p>
    <p>
      I agree with you
    </p>
  </li>
</div>
`;
